61
0
0
0
0
0
0
61
0
62
122
122
244
427
550
854
1221
1223
1159
2566
3602
5253
6471
8421
10315
15259
16173
22585
26365
35096
42538
48645
54932
67450
82525
96742
112016
131171
144465
157662
180492
201841
223802
237015
251637
276176
286568
305351
311752
322452
315679
320359
317195
308720
304689
284545
270074
261777
247132
230222
202700
182696
161208
142515
129094
108941
93139
82503
69027
55295
48095
40836
29967
23374
19224
14708
12267
8849
6529
4394
2867
2016
2136
1404
854
427
305
244
122
183
122
62
0
0
0
61



